TidyTuesday 2021/w43 - Giant Pumpkins
================
@javierfs
19th of October 2021

# Preprocessing & Cleaning

``` r
#Cleaning a bit

pumpkins %>% elucidate::copies(filter = "dupes", sort_by_copies = TRUE) # Duplicated rows detected! 75 of 28065 rows
```

    ## # A tibble: 75 × 15
    ##    id     place weight_lbs grower_name      city   state_prov country  gpc_site 
    ##    <chr>  <chr> <chr>      <chr>            <chr>  <chr>      <chr>    <chr>    
    ##  1 2019-T EXH   2.00       Boutain, Richard Linco… Michigan   United … Dundees …
    ##  2 2019-T EXH   2.00       Boutain, Richard Linco… Michigan   United … Dundees …
    ##  3 2019-T EXH   2.00       Boutain, Richard Linco… Michigan   United … Dundees …
    ##  4 2013-F 101   91.00      Gantner, Garry   Menom… Wisconsin  United … Stillwat…
    ##  5 2013-F 101   91.00      Gantner, Garry   Menom… Wisconsin  United … Stillwat…
    ##  6 2013-P 412   948.00     Macri, Robert    Spoka… Washington United … Ronan Ha…
    ##  7 2013-P 412   948.00     Macri, Robert    Spoka… Washington United … Ronan Ha…
    ##  8 2013-T 185   2.20       Jaser, Robert    Schoe… Other      Germany  Hofgut S…
    ##  9 2013-T 185   2.20       Jaser, Robert    Schoe… Other      Germany  Hofgut S…
    ## 10 2014-F 163   80.00      Harper, Peter    West … Other      United … Royal Vi…
    ## # … with 65 more rows, and 7 more variables: seed_mother <chr>,
    ## #   pollinator_father <chr>, ott <chr>, est_weight <chr>, pct_chart <chr>,
    ## #   variety <chr>, n_copies <int>
…
